{
	"editor": {
		"allAngles": false,
		"entityTextureMode": false
	},
	"textureWidth": 16,
	"textureHeight": 16,
	"textureSizes": {
	},
	"textures": {
		"base": "fishinghook"
	},
	"elements": [
		{
			"name": "Cube2",
			"from": [ 7.0, 0.0, 7.0 ],
			"to": [ 9.0, 1.0, 9.0 ],
			"uv": [ 0.0, 6.0 ],
			"rotationOrigin": [ 7.0, 0.0, 7.0 ],
			"faces": {
				"north": { "texture": "#base", "uv": [ 0.0, 8.0, 2.0, 9.0 ] },
				"east": { "texture": "#base", "uv": [ 2.0, 8.0, 4.0, 9.0 ] },
				"south": { "texture": "#base", "uv": [ 4.0, 8.0, 6.0, 9.0 ] },
				"west": { "texture": "#base", "uv": [ 6.0, 8.0, 8.0, 9.0 ] },
				"up": { "texture": "#base", "uv": [ 0.0, 6.0, 2.0, 8.0 ] },
				"down": { "texture": "#base", "uv": [ 2.0, 6.0, 4.0, 8.0 ] }
			},
			"children": [
				{
					"name": "Cube3",
					"from": [ -1.0, 1.0, -1.0 ],
					"to": [ 3.0, 3.0, 3.0 ],
					"uv": [ 0.0, 0.0 ],
					"rotationOrigin": [ -1.0, 1.0, -1.0 ],
					"faces": {
						"north": { "texture": "#base", "uv": [ 0.0, 4.0, 4.0, 6.0 ] },
						"east": { "texture": "#base", "uv": [ 4.0, 4.0, 8.0, 6.0 ] },
						"south": { "texture": "#base", "uv": [ 8.0, 4.0, 12.0, 6.0 ] },
						"west": { "texture": "#base", "uv": [ 12.0, 4.0, 16.0, 6.0 ] },
						"up": { "texture": "#base", "uv": [ 0.0, 0.0, 4.0, 4.0 ] },
						"down": { "texture": "#base", "uv": [ 4.0, 0.0, 8.0, 4.0 ] }
					},
					"children": [
						{
							"name": "Cube4",
							"from": [ 1.0, 2.0, 1.0 ],
							"to": [ 3.0, 3.0, 3.0 ],
							"uv": [ 8.0, 6.0 ],
							"rotationOrigin": [ 1.0, 2.0, 1.0 ],
							"faces": {
								"north": { "texture": "#base", "uv": [ 8.0, 8.0, 10.0, 9.0 ] },
								"east": { "texture": "#base", "uv": [ 10.0, 8.0, 12.0, 9.0 ] },
								"south": { "texture": "#base", "uv": [ 12.0, 8.0, 14.0, 9.0 ] },
								"west": { "texture": "#base", "uv": [ 14.0, 8.0, 16.0, 9.0 ] },
								"up": { "texture": "#base", "uv": [ 8.0, 6.0, 10.0, 8.0 ] },
								"down": { "texture": "#base", "uv": [ 10.0, 6.0, 12.0, 8.0 ] }
							},
							"children": [
								{
									"name": "Feather1",
									"from": [ 1.0, 1.0, 0.0 ],
									"to": [ 6.0, 1.0, 2.0 ],
									"uv": [ 0.0, 13.5 ],
									"rotationOrigin": [ 1.0, 1.0, 0.0 ],
									"rotationY": 22.5,
									"rotationZ": 45.0,
									"faces": {
										"north": { "texture": "#base", "uv": [ 0.0, 15.5, 5.0, 16.0 ] },
										"east": { "texture": "#base", "uv": [ 5.0, 15.5, 7.0, 16.0 ] },
										"south": { "texture": "#base", "uv": [ 7.0, 15.5, 12.0, 16.0 ] },
										"west": { "texture": "#base", "uv": [ 12.0, 15.5, 14.0, 16.0 ] },
										"up": { "texture": "#base", "uv": [ 0.0, 13.5, 5.0, 15.5 ] },
										"down": { "texture": "#base", "uv": [ 5.0, 13.5, 10.0, 15.5 ] }
									}
								},
								{
									"name": "Feather2",
									"from": [ 2.0, 1.0, 1.0 ],
									"to": [ 7.0, 1.0, 3.0 ],
									"uv": [ 0.0, 11.0 ],
									"rotationOrigin": [ 2.0, 1.0, 1.0 ],
									"rotationZ": 45.0,
									"faces": {
										"north": { "texture": "#base", "uv": [ 0.0, 13.0, 5.0, 13.5 ] },
										"east": { "texture": "#base", "uv": [ 5.0, 13.0, 7.0, 13.5 ] },
										"south": { "texture": "#base", "uv": [ 7.0, 13.0, 12.0, 13.5 ] },
										"west": { "texture": "#base", "uv": [ 12.0, 13.0, 14.0, 13.5 ] },
										"up": { "texture": "#base", "uv": [ 0.0, 11.0, 5.0, 13.0 ] },
										"down": { "texture": "#base", "uv": [ 5.0, 11.0, 10.0, 13.0 ] }
									}
								}
							]
						}
					]
				},
				{
					"name": "Hook",
					"from": [ 0.8, -2.2, 2.0 ],
					"to": [ 1.2, 0.2, 2.4 ],
					"uv": [ 8.0, 1.5 ],
					"rotationOrigin": [ 0.8, -2.2, 2.0 ],
					"rotationX": -22.5,
					"faces": {
						"north": { "texture": "#base", "uv": [ 8.0, 2.0, 8.5, 4.0 ] },
						"east": { "texture": "#base", "uv": [ 8.5, 2.0, 9.0, 4.0 ] },
						"south": { "texture": "#base", "uv": [ 9.0, 2.0, 9.5, 4.0 ] },
						"west": { "texture": "#base", "uv": [ 9.5, 2.0, 10.0, 4.0 ] },
						"up": { "texture": "#base", "uv": [ 8.0, 1.5, 8.5, 2.0 ] },
						"down": { "texture": "#base", "uv": [ 8.5, 1.5, 9.0, 2.0 ] }
					}
				},
				{
					"name": "Hook2",
					"from": [ 0.85, -2.8, 1.1 ],
					"to": [ 1.15, -1.6, 1.4 ],
					"uv": [ 8.0, 2.5 ],
					"rotationOrigin": [ 0.8, -2.8, 1.1 ],
					"rotationX": 45.0,
					"faces": {
						"north": { "texture": "#base", "uv": [ 8.0, 3.0, 8.5, 4.0 ] },
						"east": { "texture": "#base", "uv": [ 8.5, 3.0, 9.0, 4.0 ] },
						"south": { "texture": "#base", "uv": [ 9.0, 3.0, 9.5, 4.0 ] },
						"west": { "texture": "#base", "uv": [ 9.5, 3.0, 10.0, 4.0 ] },
						"up": { "texture": "#base", "uv": [ 8.0, 2.5, 8.5, 3.0 ] },
						"down": { "texture": "#base", "uv": [ 8.5, 2.5, 9.0, 3.0 ] }
					}
				},
				{
					"name": "Hook3",
					"from": [ 0.9, -1.9, 0.5 ],
					"to": [ 1.1, -0.7, 0.7 ],
					"uv": [ 8.0, 2.5 ],
					"rotationOrigin": [ 0.8, -1.9, 0.5 ],
					"rotationX": 135.0,
					"faces": {
						"north": { "texture": "#base", "uv": [ 8.0, 3.0, 8.5, 4.0 ] },
						"east": { "texture": "#base", "uv": [ 8.5, 3.0, 9.0, 4.0 ] },
						"south": { "texture": "#base", "uv": [ 9.0, 3.0, 9.5, 4.0 ] },
						"west": { "texture": "#base", "uv": [ 9.5, 3.0, 10.0, 4.0 ] },
						"up": { "texture": "#base", "uv": [ 8.0, 2.5, 8.5, 3.0 ] },
						"down": { "texture": "#base", "uv": [ 8.5, 2.5, 9.0, 3.0 ] }
					}
				}
			]
		}
	]}