{
	"editor": {
		"allAngles": false,
		"entityTextureMode": false
	},
	"textureWidth": 64,
	"textureHeight": 64,
	"textureSizes": {
	},
	"textures": {
		"base": "metalfishingpole",
		"iron": "metals/iron"
	},
	"elements": [
		{
			"name": "Handle",
			"from": [ -5.0, 0.0, 7.25 ],
			"to": [ 5.0, 1.5, 8.75 ],
			"uv": [ 0.0, 61.0 ],
			"rotationOrigin": [ 0.0, 0.0, 8.0 ],
			"faces": {
				"north": { "texture": "#iron", "uv": [ 0.0, 62.5, 10.0, 64.0 ] },
				"east": { "texture": "#iron", "uv": [ 10.0, 62.5, 11.5, 64.0 ] },
				"south": { "texture": "#iron", "uv": [ 11.5, 62.5, 21.5, 64.0 ] },
				"west": { "texture": "#iron", "uv": [ 21.5, 62.5, 23.0, 64.0 ] },
				"up": { "texture": "#iron", "uv": [ 0.0, 61.0, 10.0, 62.5 ] },
				"down": { "texture": "#iron", "uv": [ 10.0, 61.0, 20.0, 62.5 ] }
			},
			"children": [
				{
					"name": "Cover1",
					"from": [ 0.5, -0.15, -0.15 ],
					"to": [ 3.5, 1.65, 1.65 ],
					"uv": [ 23.0, 61.0 ],
					"faces": {
						"north": { "texture": "#base", "uv": [ 23.0, 62.5, 26.0, 64.0 ] },
						"east": { "texture": "#base", "uv": [ 26.0, 62.5, 27.5, 64.0 ] },
						"south": { "texture": "#base", "uv": [ 27.5, 62.5, 30.5, 64.0 ] },
						"west": { "texture": "#base", "uv": [ 30.5, 62.5, 32.0, 64.0 ] },
						"up": { "texture": "#base", "uv": [ 23.0, 61.0, 26.0, 62.5 ] },
						"down": { "texture": "#base", "uv": [ 26.0, 61.0, 29.0, 62.5 ] }
					}
				},
				{
					"name": "Cover2",
					"from": [ 6.5, -0.15, -0.15 ],
					"to": [ 9.5, 1.65, 1.65 ],
					"uv": [ 32.0, 61.0 ],
					"rotationOrigin": [ 6.0, 0.0, 0.0 ],
					"faces": {
						"north": { "texture": "#base", "uv": [ 32.0, 62.5, 35.0, 64.0 ] },
						"east": { "texture": "#base", "uv": [ 35.0, 62.5, 36.5, 64.0 ] },
						"south": { "texture": "#base", "uv": [ 36.5, 62.5, 39.5, 64.0 ] },
						"west": { "texture": "#base", "uv": [ 39.5, 62.5, 41.0, 64.0 ] },
						"up": { "texture": "#base", "uv": [ 32.0, 61.0, 35.0, 62.5 ] },
						"down": { "texture": "#base", "uv": [ 35.0, 61.0, 38.0, 62.5 ] }
					}
				},
				{
					"name": "Shaft1",
					"from": [ 10.0, 0.5, 0.5 ],
					"to": [ 26.0, 1.0, 1.0 ],
					"uv": [ 0.0, 31.0 ],
					"rotationOrigin": [ 10.0, 1.0, 0.0 ],
					"faces": {
						"north": { "texture": "#iron", "uv": [ 0.0, 32.0, 16.0, 33.0 ] },
						"east": { "texture": "#iron", "uv": [ 16.0, 32.0, 17.0, 33.0 ] },
						"south": { "texture": "#iron", "uv": [ 17.0, 32.0, 33.0, 33.0 ] },
						"west": { "texture": "#iron", "uv": [ 33.0, 32.0, 34.0, 33.0 ] },
						"up": { "texture": "#iron", "uv": [ 0.0, 31.0, 16.0, 32.0 ] },
						"down": { "texture": "#iron", "uv": [ 16.0, 31.0, 32.0, 32.0 ] }
					},
					"children": [
						{
							"name": "Ring1",
							"from": [ 4.0, -0.5, 0.0 ],
							"to": [ 4.5, 0.0, 0.5 ],
							"uv": [ -0.5, 35.0 ],
							"rotationOrigin": [ 4.0, 0.0, 0.0 ],
							"faces": {
								"north": { "texture": "#iron", "uv": [ 0.0, 36.0, 1.0, 37.0 ] },
								"east": { "texture": "#iron", "uv": [ 1.0, 36.0, 2.0, 37.0 ] },
								"south": { "texture": "#iron", "uv": [ 2.0, 36.0, 3.0, 37.0 ] },
								"west": { "texture": "#iron", "uv": [ 3.0, 36.0, 4.0, 37.0 ] },
								"up": { "texture": "#iron", "uv": [ 0.0, 35.0, 1.0, 36.0 ] },
								"down": { "texture": "#iron", "uv": [ 1.0, 35.0, 2.0, 36.0 ] }
							}
						},
						{
							"name": "Ring2",
							"from": [ 8.0, -0.5, 0.0 ],
							"to": [ 8.5, 0.0, 0.5 ],
							"uv": [ -0.5, 35.0 ],
							"rotationOrigin": [ 8.0, 0.0, 0.0 ],
							"faces": {
								"north": { "texture": "#iron", "uv": [ 0.0, 36.0, 1.0, 37.0 ] },
								"east": { "texture": "#iron", "uv": [ 1.0, 36.0, 2.0, 37.0 ] },
								"south": { "texture": "#iron", "uv": [ 2.0, 36.0, 3.0, 37.0 ] },
								"west": { "texture": "#iron", "uv": [ 3.0, 36.0, 4.0, 37.0 ] },
								"up": { "texture": "#iron", "uv": [ 0.0, 35.0, 1.0, 36.0 ] },
								"down": { "texture": "#iron", "uv": [ 1.0, 35.0, 2.0, 36.0 ] }
							}
						},
						{
							"name": "Ring3",
							"from": [ 12.0, -0.5, 0.0 ],
							"to": [ 12.5, 0.0, 0.5 ],
							"uv": [ -0.5, 35.0 ],
							"rotationOrigin": [ 12.0, 0.0, 0.0 ],
							"faces": {
								"north": { "texture": "#iron", "uv": [ 0.0, 36.0, 1.0, 37.0 ] },
								"east": { "texture": "#iron", "uv": [ 1.0, 36.0, 2.0, 37.0 ] },
								"south": { "texture": "#iron", "uv": [ 2.0, 36.0, 3.0, 37.0 ] },
								"west": { "texture": "#iron", "uv": [ 3.0, 36.0, 4.0, 37.0 ] },
								"up": { "texture": "#iron", "uv": [ 0.0, 35.0, 1.0, 36.0 ] },
								"down": { "texture": "#iron", "uv": [ 1.0, 35.0, 2.0, 36.0 ] }
							}
						},
						{
							"name": "Line1",
							"from": [ 0.0, -0.4, 0.125 ],
							"to": [ 16.0, -0.15, 0.375 ],
							"uv": [ 0.0, 58.0 ],
							"faces": {
								"north": { "texture": "#base", "uv": [ 0.0, 58.5, 16.0, 59.0 ] },
								"east": { "texture": "#base", "uv": [ 16.0, 58.5, 16.5, 59.0 ] },
								"south": { "texture": "#base", "uv": [ 16.5, 58.5, 32.5, 59.0 ] },
								"west": { "texture": "#base", "uv": [ 32.5, 58.5, 33.0, 59.0 ] },
								"up": { "texture": "#base", "uv": [ 0.0, 58.0, 16.0, 58.5 ] },
								"down": { "texture": "#base", "uv": [ 16.0, 58.0, 32.0, 58.5 ] }
							}
						}
					]
				},
				{
					"name": "Shaft2",
					"from": [ 26.0, 0.5, 0.5 ],
					"to": [ 42.0, 1.0, 1.0 ],
					"uv": [ 0.0, 33.0 ],
					"rotationOrigin": [ 26.0, 1.0, 0.0 ],
					"faces": {
						"north": { "texture": "#iron", "uv": [ 0.0, 34.0, 16.0, 35.0 ] },
						"east": { "texture": "#iron", "uv": [ 16.0, 34.0, 17.0, 35.0 ] },
						"south": { "texture": "#iron", "uv": [ 17.0, 34.0, 33.0, 35.0 ] },
						"west": { "texture": "#iron", "uv": [ 33.0, 34.0, 34.0, 35.0 ] },
						"up": { "texture": "#iron", "uv": [ 0.0, 33.0, 16.0, 34.0 ] },
						"down": { "texture": "#iron", "uv": [ 16.0, 33.0, 32.0, 34.0 ] }
					},
					"children": [
						{
							"name": "Ring4",
							"from": [ 0.0, -0.5, 0.0 ],
							"to": [ 0.5, 0.0, 0.5 ],
							"uv": [ -0.5, 35.0 ],
							"faces": {
								"north": { "texture": "#iron", "uv": [ 0.0, 36.0, 1.0, 37.0 ] },
								"east": { "texture": "#iron", "uv": [ 1.0, 36.0, 2.0, 37.0 ] },
								"south": { "texture": "#iron", "uv": [ 2.0, 36.0, 3.0, 37.0 ] },
								"west": { "texture": "#iron", "uv": [ 3.0, 36.0, 4.0, 37.0 ] },
								"up": { "texture": "#iron", "uv": [ 0.0, 35.0, 1.0, 36.0 ] },
								"down": { "texture": "#iron", "uv": [ 1.0, 35.0, 2.0, 36.0 ] }
							}
						},
						{
							"name": "Ring5",
							"from": [ 4.0, -0.5, 0.0 ],
							"to": [ 4.5, 0.0, 0.5 ],
							"uv": [ -0.5, 35.0 ],
							"rotationOrigin": [ 4.0, 0.0, 0.0 ],
							"faces": {
								"north": { "texture": "#iron", "uv": [ 0.0, 36.0, 1.0, 37.0 ] },
								"east": { "texture": "#iron", "uv": [ 1.0, 36.0, 2.0, 37.0 ] },
								"south": { "texture": "#iron", "uv": [ 2.0, 36.0, 3.0, 37.0 ] },
								"west": { "texture": "#iron", "uv": [ 3.0, 36.0, 4.0, 37.0 ] },
								"up": { "texture": "#iron", "uv": [ 0.0, 35.0, 1.0, 36.0 ] },
								"down": { "texture": "#iron", "uv": [ 1.0, 35.0, 2.0, 36.0 ] }
							}
						},
						{
							"name": "Ring6",
							"from": [ 8.0, -0.5, 0.0 ],
							"to": [ 8.5, 0.0, 0.5 ],
							"uv": [ -0.5, 35.0 ],
							"rotationOrigin": [ 8.0, 0.0, 0.0 ],
							"faces": {
								"north": { "texture": "#iron", "uv": [ 0.0, 36.0, 1.0, 37.0 ] },
								"east": { "texture": "#iron", "uv": [ 1.0, 36.0, 2.0, 37.0 ] },
								"south": { "texture": "#iron", "uv": [ 2.0, 36.0, 3.0, 37.0 ] },
								"west": { "texture": "#iron", "uv": [ 3.0, 36.0, 4.0, 37.0 ] },
								"up": { "texture": "#iron", "uv": [ 0.0, 35.0, 1.0, 36.0 ] },
								"down": { "texture": "#iron", "uv": [ 1.0, 35.0, 2.0, 36.0 ] }
							}
						},
						{
							"name": "Line2",
							"from": [ 0.0, -0.4, 0.125 ],
							"to": [ 16.0, -0.15, 0.375 ],
							"uv": [ 0.0, 57.0 ],
							"faces": {
								"north": { "texture": "#base", "uv": [ 0.0, 57.5, 16.0, 58.0 ] },
								"east": { "texture": "#base", "uv": [ 16.0, 57.5, 16.5, 58.0 ] },
								"south": { "texture": "#base", "uv": [ 16.5, 57.5, 32.5, 58.0 ] },
								"west": { "texture": "#base", "uv": [ 32.5, 57.5, 33.0, 58.0 ] },
								"up": { "texture": "#base", "uv": [ 0.0, 57.0, 16.0, 57.5 ] },
								"down": { "texture": "#base", "uv": [ 16.0, 57.0, 32.0, 57.5 ] }
							}
						},
						{
							"name": "Ring7",
							"from": [ 12.0, -0.5, 0.0 ],
							"to": [ 12.5, 0.0, 0.5 ],
							"uv": [ -0.5, 35.0 ],
							"rotationOrigin": [ 12.0, 0.0, 0.0 ],
							"faces": {
								"north": { "texture": "#iron", "uv": [ 0.0, 36.0, 1.0, 37.0 ] },
								"east": { "texture": "#iron", "uv": [ 1.0, 36.0, 2.0, 37.0 ] },
								"south": { "texture": "#iron", "uv": [ 2.0, 36.0, 3.0, 37.0 ] },
								"west": { "texture": "#iron", "uv": [ 3.0, 36.0, 4.0, 37.0 ] },
								"up": { "texture": "#iron", "uv": [ 0.0, 35.0, 1.0, 36.0 ] },
								"down": { "texture": "#iron", "uv": [ 1.0, 35.0, 2.0, 36.0 ] }
							}
						},
						{
							"name": "Ring8",
							"from": [ 16.0, -0.5, 0.0 ],
							"to": [ 16.5, 0.0, 0.5 ],
							"uv": [ -0.5, 35.0 ],
							"rotationOrigin": [ 16.0, 0.0, 0.0 ],
							"faces": {
								"north": { "texture": "#iron", "uv": [ 0.0, 36.0, 1.0, 37.0 ] },
								"east": { "texture": "#iron", "uv": [ 1.0, 36.0, 2.0, 37.0 ] },
								"south": { "texture": "#iron", "uv": [ 2.0, 36.0, 3.0, 37.0 ] },
								"west": { "texture": "#iron", "uv": [ 3.0, 36.0, 4.0, 37.0 ] },
								"up": { "texture": "#iron", "uv": [ 0.0, 35.0, 1.0, 36.0 ] },
								"down": { "texture": "#iron", "uv": [ 1.0, 35.0, 2.0, 36.0 ] }
							}
						}
					]
				},
				{
					"name": "Reel",
					"from": [ 6.0, -2.0, 0.0 ],
					"to": [ 8.0, 0.0, 1.5 ],
					"uv": [ 0.0, 53.5 ],
					"rotationOrigin": [ 6.0, -2.0, 0.0 ],
					"faces": {
						"north": { "texture": "#iron", "uv": [ 0.0, 55.0, 2.0, 57.0 ] },
						"east": { "texture": "#base", "uv": [ 2.0, 55.0, 3.5, 57.0 ] },
						"south": { "texture": "#iron", "uv": [ 4.0, 55.0, 6.0, 57.0 ] },
						"west": { "texture": "#base", "uv": [ 6.0, 55.0, 7.5, 57.0 ] },
						"up": { "texture": "#base", "uv": [ 0.0, 53.5, 2.0, 55.0 ] },
						"down": { "texture": "#base", "uv": [ 2.0, 53.5, 4.0, 55.0 ] }
					},
					"children": [
						{
							"name": "Reel3",
							"from": [ -0.25, 1.0, -1.0 ],
							"to": [ 0.0, 1.25, 0.0 ],
							"uv": [ 0.0, 51.0 ],
							"rotationOrigin": [ 0.0, 1.0, -1.0 ],
							"faces": {
								"north": { "texture": "#base", "uv": [ 0.0, 52.0, 0.5, 52.5 ] },
								"east": { "texture": "#base", "uv": [ 0.5, 52.0, 1.5, 52.5 ] },
								"south": { "texture": "#base", "uv": [ 1.5, 52.0, 2.0, 52.5 ] },
								"west": { "texture": "#base", "uv": [ 2.0, 52.0, 3.0, 52.5 ] },
								"up": { "texture": "#base", "uv": [ 0.0, 51.0, 0.5, 52.0 ] },
								"down": { "texture": "#base", "uv": [ 0.5, 51.0, 1.0, 52.0 ] }
							}
						},
						{
							"name": "Reel2",
							"from": [ 0.0, 1.0, -0.25 ],
							"to": [ 1.0, 1.25, 0.0 ],
							"uv": [ 0.0, 52.5 ],
							"faces": {
								"north": { "texture": "#base", "uv": [ 0.0, 53.0, 1.0, 53.5 ] },
								"east": { "texture": "#base", "uv": [ 1.0, 53.0, 1.5, 53.5 ] },
								"south": { "texture": "#base", "uv": [ 1.5, 53.0, 2.5, 53.5 ] },
								"west": { "texture": "#base", "uv": [ 2.5, 53.0, 3.0, 53.5 ] },
								"up": { "texture": "#base", "uv": [ 0.0, 52.5, 1.0, 53.0 ] },
								"down": { "texture": "#base", "uv": [ 1.0, 52.5, 2.0, 53.0 ] }
							}
						}
					]
				}
			]
		}
	]}