{
	"editor": {
		"allAngles": false,
		"entityTextureMode": false
	},
	"textureWidth": 64,
	"textureHeight": 64,
	"textureSizes": {
	},
	"textures": {
		"net": "net"
	},
	"elements": [
		{
			"name": "Cube2",
			"from": [ 0.0, 0.0, 0.0 ],
			"to": [ 16.0, 2.0, 16.0 ],
			"uv": [ 0.0, 46.0 ],
			"faces": {
				"north": { "texture": "#net", "uv": [ 0.0, 62.0, 16.0, 64.0 ] },
				"east": { "texture": "#net", "uv": [ 16.0, 62.0, 32.0, 64.0 ] },
				"south": { "texture": "#net", "uv": [ 32.0, 62.0, 48.0, 64.0 ] },
				"west": { "texture": "#net", "uv": [ 48.0, 62.0, 64.0, 64.0 ] },
				"up": { "texture": "#net", "uv": [ 0.0, 46.0, 16.0, 62.0 ] }
			},
			"children": [
				{
					"name": "Cube3",
					"from": [ -4.0, 0.0, -4.0 ],
					"to": [ 20.0, 1.0, 20.0 ],
					"uv": [ 0.0, 22.0 ],
					"faces": {
						"up": { "texture": "#net", "uv": [ 0.0, 22.0, 24.0, 46.0 ], "windMode": [-1,-1,-1,-1] }
					},
					"children": [
						{
							"name": "Weight1",
							"from": [ -1.0, 0.0, -1.0 ],
							"to": [ 1.0, 2.0, 1.0 ],
							"uv": [ 0.0, 0.0 ],
							"rotationOrigin": [ -1.0, 0.0, -1.0 ],
							"faces": {
								"north": { "texture": "#net", "uv": [ 0.0, 0.0, 2.0, 2.0 ] },
								"east": { "texture": "#net", "uv": [ 0.0, 0.0, 2.0, 2.0 ] },
								"south": { "texture": "#net", "uv": [ 0.0, 0.0, 2.0, 2.0 ] },
								"west": { "texture": "#net", "uv": [ 0.0, 0.0, 2.0, 2.0 ] },
								"up": { "texture": "#net", "uv": [ 0.0, 0.0, 2.0, 2.0 ] },
								"down": { "texture": "#net", "uv": [ 0.0, 0.0, 2.0, 2.0 ] }
							}
						},
						{
							"name": "Weight2",
							"from": [ 23.0, 0.0, -1.0 ],
							"to": [ 25.0, 2.0, 1.0 ],
							"uv": [ 0.0, 0.0 ],
							"rotationOrigin": [ 23.0, 0.0, -1.0 ],
							"faces": {
								"north": { "texture": "#net", "uv": [ 0.0, 0.0, 2.0, 2.0 ] },
								"east": { "texture": "#net", "uv": [ 0.0, 0.0, 2.0, 2.0 ] },
								"south": { "texture": "#net", "uv": [ 0.0, 0.0, 2.0, 2.0 ] },
								"west": { "texture": "#net", "uv": [ 0.0, 0.0, 2.0, 2.0 ] },
								"up": { "texture": "#net", "uv": [ 0.0, 0.0, 2.0, 2.0 ] },
								"down": { "texture": "#net", "uv": [ 0.0, 0.0, 2.0, 2.0 ] }
							}
						},
						{
							"name": "Weight3",
							"from": [ 23.0, 0.0, 23.0 ],
							"to": [ 25.0, 2.0, 25.0 ],
							"uv": [ 0.0, 0.0 ],
							"rotationOrigin": [ 23.0, 0.0, 23.0 ],
							"faces": {
								"north": { "texture": "#net", "uv": [ 0.0, 0.0, 2.0, 2.0 ] },
								"east": { "texture": "#net", "uv": [ 0.0, 0.0, 2.0, 2.0 ] },
								"south": { "texture": "#net", "uv": [ 0.0, 0.0, 2.0, 2.0 ] },
								"west": { "texture": "#net", "uv": [ 0.0, 0.0, 2.0, 2.0 ] },
								"up": { "texture": "#net", "uv": [ 0.0, 0.0, 2.0, 2.0 ] },
								"down": { "texture": "#net", "uv": [ 0.0, 0.0, 2.0, 2.0 ] }
							}
						},
						{
							"name": "Weight4",
							"from": [ -1.0, 0.0, 23.0 ],
							"to": [ 1.0, 2.0, 25.0 ],
							"uv": [ 0.0, 0.0 ],
							"rotationOrigin": [ -1.0, 0.0, 23.0 ],
							"faces": {
								"north": { "texture": "#net", "uv": [ 0.0, 0.0, 2.0, 2.0 ] },
								"east": { "texture": "#net", "uv": [ 0.0, 0.0, 2.0, 2.0 ] },
								"south": { "texture": "#net", "uv": [ 0.0, 0.0, 2.0, 2.0 ] },
								"west": { "texture": "#net", "uv": [ 0.0, 0.0, 2.0, 2.0 ] },
								"up": { "texture": "#net", "uv": [ 0.0, 0.0, 2.0, 2.0 ] },
								"down": { "texture": "#net", "uv": [ 0.0, 0.0, 2.0, 2.0 ] }
							}
						}
					]
				}
			]
		}
	]}