{
	"editor": {
		"allAngles": false,
		"entityTextureMode": false
	},
	"textureWidth": 16,
	"textureHeight": 16,
	"textureSizes": {
	},
	"textures": {
		"worm": "temporalworm"
	},
	"elements": [
		{
			"name": "Cube2",
			"from": [ 3.0, 0.0, 7.0 ],
			"to": [ 6.0, 1.0, 8.0 ],
			"uv": [ 0.0, 14.0 ],
			"rotationOrigin": [ 3.0, 0.0, 7.0 ],
			"rotationY": -22.5,
			"faces": {
				"north": { "texture": "#worm", "uv": [ 0.0, 15.0, 3.0, 16.0 ], "glow": 255 },
				"east": { "texture": "#worm", "uv": [ 3.0, 15.0, 4.0, 16.0 ], "glow": 255, "windMode": [-1,-1,-1,-1] },
				"south": { "texture": "#worm", "uv": [ 4.0, 15.0, 7.0, 16.0 ], "glow": 255, "windMode": [-1,-1,-1,-1] },
				"west": { "texture": "#worm", "uv": [ 7.0, 15.0, 8.0, 16.0 ], "glow": 255, "windMode": [-1,-1,-1,-1] },
				"up": { "texture": "#worm", "uv": [ 0.0, 14.0, 3.0, 15.0 ], "glow": 255, "windMode": [-1,-1,-1,-1] },
				"down": { "texture": "#worm", "uv": [ 3.0, 14.0, 6.0, 15.0 ], "glow": 255, "windMode": [-1,-1,-1,-1] }
			}
		},
		{
			"name": "Cube3",
			"from": [ 5.0, 0.0, 8.0 ],
			"to": [ 8.0, 1.0, 9.0 ],
			"uv": [ 0.0, 14.0 ],
			"rotationOrigin": [ 5.0, 0.0, 8.0 ],
			"rotationX": 22.5,
			"rotationY": 22.5,
			"faces": {
				"north": { "texture": "#worm", "uv": [ 0.0, 15.0, 3.0, 16.0 ], "glow": 255 },
				"east": { "texture": "#worm", "uv": [ 3.0, 15.0, 4.0, 16.0 ], "glow": 255, "windMode": [-1,-1,-1,-1] },
				"south": { "texture": "#worm", "uv": [ 4.0, 15.0, 7.0, 16.0 ], "glow": 255, "windMode": [-1,-1,-1,-1] },
				"west": { "texture": "#worm", "uv": [ 7.0, 15.0, 8.0, 16.0 ], "glow": 255, "windMode": [-1,-1,-1,-1] },
				"up": { "texture": "#worm", "uv": [ 0.0, 14.0, 3.0, 15.0 ], "glow": 255, "windMode": [-1,-1,-1,-1] },
				"down": { "texture": "#worm", "uv": [ 3.0, 14.0, 6.0, 15.0 ], "glow": 255, "windMode": [-1,-1,-1,-1] }
			}
		},
		{
			"name": "Cube4",
			"from": [ 8.0, 0.0, 7.0 ],
			"to": [ 11.0, 1.0, 8.0 ],
			"uv": [ 0.0, 14.0 ],
			"rotationOrigin": [ 8.0, 0.0, 7.0 ],
			"rotationY": -22.5,
			"faces": {
				"north": { "texture": "#worm", "uv": [ 0.0, 15.0, 3.0, 16.0 ], "glow": 255, "windMode": [-1,-1,-1,-1] },
				"east": { "texture": "#worm", "uv": [ 3.0, 15.0, 4.0, 16.0 ], "glow": 255, "windMode": [-1,-1,-1,-1] },
				"south": { "texture": "#worm", "uv": [ 4.0, 15.0, 7.0, 16.0 ], "glow": 255, "windMode": [-1,-1,-1,-1] },
				"west": { "texture": "#worm", "uv": [ 7.0, 15.0, 8.0, 16.0 ], "glow": 255, "windMode": [-1,-1,-1,-1] },
				"up": { "texture": "#worm", "uv": [ 0.0, 14.0, 3.0, 15.0 ], "glow": 255, "windMode": [-1,-1,-1,-1] },
				"down": { "texture": "#worm", "uv": [ 3.0, 14.0, 6.0, 15.0 ], "glow": 255, "windMode": [-1,-1,-1,-1] }
			}
		}
	]}