﻿[
  {
    "ingredientPattern": "H C,NCL,PWL",
    "ingredients": {
      "C": {
        "type": "item",
        "code": "game:chisel-*",
        "name": "material",
        "allowedVariants": [ "copper", "tinbronze", "bismuthbronze", "blackbronze", "iron", "meteoriciron", "steel" ]
      },
      "L": {
        "type": "item",
        "code": "game:flaxtwine",
        "quantity": 4
      },
      "W": {
        "type": "block",
        "code": "game:debarkedlog-*-ud"
      },
      "N": {
        "type": "item",
        "code": "game:metalnailsandstrips-*",
        "name": "material",
        "quantity": 2
      },
      "H": {
        "type": "item",
        "code": "game:hammer-*",
        "isTool": true,
        "toolDurabilityCost": 10
      },
      "P": {
        "type": "item",
        "code": "game:metalplate-*",
        "name": "material",
        "allowedVariants": [ "copper", "tinbronze", "bismuthbronze", "blackbronze", "iron", "meteoriciron", "steel" ]
      }
    },
    "width": 3,
    "height": 3,
    "output": {
      "type": "item",
      "code": "fishing:fishingpole-{material}",
      "allowedVariants": [ "copper", "tinbronze", "bismuthbronze", "blackbronze", "iron", "meteoriciron", "steel" ]
    }
  }
]