﻿[
  {
    "ingredientPattern": "A C,KCL,C L",
    "ingredients": {
      "C": {
        "type": "block",
        "code": "game:debarkedlog-*-ud",
        "quantity": 1
      },
      "L": {
        "type": "item",
        "code": "game:rope",
        "quantity": 4
      },
      "K": {
        "type": "item",
        "code": "game:knife-*",
        "isTool": true,
        "toolDurabilityCost": 50,
        "quantity": 1
      },
      "A": {
        "type": "item",
        "code": "game:axe-*",
        "isTool": true,
        "toolDurabilityCost": 50,
        "quantity": 1
      }
    },
    "width": 3,
    "height": 3,
    "output": {
      "type": "item",
      "code": "fishing:fishingpole-wood",
      "quantity": 1
    }
  },
  {
    "ingredientPattern": "A C,KCL,C L",
    "ingredients": {
      "C": {
        "type": "item",
        "code": "game:bamboostakes",
        "quantity": 2
      },
      "L": {
        "type": "item",
        "code": "game:rope",
        "quantity": 4
      },
      "K": {
        "type": "item",
        "code": "game:knife-*",
        "isTool": true,
        "toolDurabilityCost": 50,
        "quantity": 1
      },
      "A": {
        "type": "item",
        "code": "game:axe-*",
        "isTool": true,
        "toolDurabilityCost": 50,
        "quantity": 1
      }
    },
    "width": 3,
    "height": 3,
    "output": {
      "type": "item",
      "code": "fishing:fishingpole-brownbamboo",
      "quantity": 1
    }
  },
  {
    "ingredientPattern": "A C,KCL,C L",
    "ingredients": {
      "C": {
        "type": "block",
        "code": "game:sapling-greenbamboo-free",
        "quantity": 2
      },
      "L": {
        "type": "item",
        "code": "game:rope",
        "quantity": 4
      },
      "K": {
        "type": "item",
        "code": "game:knife-*",
        "isTool": true,
        "toolDurabilityCost": 50,
        "quantity": 1
      },
      "A": {
        "type": "item",
        "code": "game:axe-*",
        "isTool": true,
        "toolDurabilityCost": 50,
        "quantity": 1
      }
    },
    "width": 3,
    "height": 3,
    "output": {
      "type": "item",
      "code": "fishing:fishingpole-greenbamboo",
      "quantity": 1
    }
  }
]