﻿{
	"code": "catch",
	"creativeinventory": {
		"general": [ "*" ],
		"items": [ "*" ]
	},
	"maxstacksizeByType": {
		"*-bluefintuna-*": 1,
		"*-bullshark-*": 4,
		"*": 32
	},
	"variantgroups": [
		{
			"code": "type",
			"states": [ "bluefintuna", "bullshark", "salmon-fish", "cavefish-fish", "neontetra-fish", "redsnapper-fish", "catfish-fish", "mackerel" ]
		},
		{
			"code": "status",
			"states": [ "fresh", "cooked" ]
		}
	],
	"skipVariants": [
		"catch-bluefintuna-cooked"
	],
	"drawtype": "shape",
	"shapeByType": {
		"*-fish-*": { "base": "animalia/fish" },
		"*": { "base": "animalia/{type}" }
	},
	"texturesByType": {
		"*-fresh": {
			"base": { "base": "animalia/{type}" }
		},
		"*-cooked": {
			"base": {
				"base": "animalia/{type}",
				"overlays": [ "utilities/cookedoverlay128", "utilities/cookedoverlay64", "utilities/cookedoverlay32" ]
			}
		}
	},
	"attributes": {
		"baitPowerByType": {
			"*-mackerel-fresh": 10
		},
		"breakChanceByType": {
			"*-mackerel-fresh": 0.2
		},
		"inFirePitPropsByType": {
			"*-bullshark-*": {
				"transform": {
					"scale": 0.5,
					"origin": {
						"x": 0,
						"y": 0,
						"z": 0
					},
					"translation": {
						"x": 0.3,
						"y": 0,
						"z": 0.4
					},
					"rotation": {
						"x": 0,
						"y": 48,
						"z": 0
					}
				},
				"useFirepitModel": "Spit"
			},
			"*-fish-*": {
				"transform": {
					"scale": 1,
					"origin": {
						"x": 0,
						"y": 0,
						"z": 0
					},
					"translation": {
						"x": 0.3,
						"y": 0.5,
						"z": 0
					},
					"rotation": {
						"x": 0,
						"y": 0,
						"z": -90
					}
				},
				"useFirepitModel": "Spit"
			},
			"*-mackerel-*": {
				"transform": {
					"scale": 1,
					"origin": {
						"x": 0,
						"y": 0,
						"z": 0
					},
					"translation": {
						"x": 0.3,
						"y": 0.5,
						"z": 0
					},
					"rotation": {
						"x": 0,
						"y": 0,
						"z": -90
					}
				},
				"useFirepitModel": "Spit"
			}
		}
	},
	"transitionablePropsByType": {
		"*-bluefintuna-*": [
			{
				"type": "Perish",
				"freshHours": { "avg": 72 },
				"transitionHours": { "avg": 48 },
				"transitionedStack": {
					"type": "item",
					"code": "game:rot"
				},
				"transitionRatio": 1
			}
		],
		"*": [
			{
				"type": "Perish",
				"freshHours": { "avg": 36 },
				"transitionHours": { "avg": 24 },
				"transitionedStack": {
					"type": "item",
					"code": "game:rot"
				},
				"transitionRatio": 1
			}
		]
	},
	"guiTransformByType": {
		"*-bluefintuna-*": {
			"rotation": {
				"x": 180,
				"y": -110,
				"z": 0
			},
			"origin": {
				"x": -0.1,
				"y": 0.55,
				"z": 0.5
			},
			"scale": 1.45
		},
		"*-bullshark-*": {
			"rotation": {
				"x": 180,
				"y": -110,
				"z": 0
			},
			"origin": {
				"x": 0.5,
				"y": 1.2,
				"z": 0
			},
			"scale": 0.7
		},
		"*": {
			"rotate": true,
			"translation": {
				"x": 0,
				"y": 0,
				"z": 0
			},
			"rotation": {
				"x": 175,
				"y": 145,
				"z": -40
			},
			"origin": {
				"x": 0.5,
				"y": 0.2,
				"z": 0.5
			},
			"scale": 1.9
		}
	},
	"fpHandTransformByType": {
		"*": {
			"rotation": {
				"x": 25,
				"y": -65,
				"z": 2
			},
			"origin": {
				"x": 0.6,
				"y": 0.3,
				"z": 0.6
			},
			"scale": 3
		}
	},
	"tpHandTransformByType": {
		"*-bluefintuna-*": {
			"translation": {
				"x": -0.3,
				"y": -0.3,
				"z": -0.2
			},
			"rotation": {
				"x": 10,
				"y": 180,
				"z": 20
			},
			"scale": 1.2
		},
		"*-bullshark-*": {
			"translation": {
				"x": -1,
				"y": -1,
				"z": 0
			},
			"rotation": {
				"x": -90,
				"y": 150,
				"z": 4
			},
			"scale": 0.5
		},
		"*": {
			"translation": {
				"x": -0.3,
				"y": -1,
				"z": -0.75
			},
			"rotation": {
				"x": 180,
				"y": -6,
				"z": -10
			},
			"scale": 0.7
		}
	},
	"groundTransformByType": {
		"*-bullshark-*": {
			"rotation": {
				"x": 0,
				"y": 90,
				"z": 0
			},
			"scale": 4
		},
		"*-bluefintuna-*": {
			"rotation": {
				"x": 90,
				"y": 90,
				"z": 0
			},
			"scale": 8
		},
		"*-catfish-*": {
			"translation": {
				"x": 0,
				"y": 0.4,
				"z": 0
			},
			"rotation": {
				"x": 0,
				"y": 90,
				"z": 0
			},
			"scale": 8
		},
		"*": {
			"translation": {
				"x": 0,
				"y": 0.4,
				"z": 0
			},
			"rotation": {
				"x": 0,
				"y": 90,
				"z": 0
			},
			"scale": 4
		}
	},
	"heldTpIdleAnimationByType": {
		"*-bullshark-*": "holdunderarm",
		"*-bluefintuna-*": "holdunderarm",
		"*": "holdinglanternrighthand"
	},
	"nutritionPropsByType": {
		"*-bullshark-cooked": {
			"satiety": 3000,
			"health": 4,
			"foodcategory": "Protein"
		},
		"*-salmon-fish-cooked": {
			"satiety": 240,
			"health": 0,
			"foodcategory": "Protein"
		},
		"*-cavefish-fish-cooked": {
			"satiety": 240,
			"health": 0,
			"foodcategory": "Protein"
		},
		"*-neontetra-fish-cooked": {
			"satiety": 240,
			"health": 0,
			"foodcategory": "Protein"
		},
		"*-redsnapper-fish-cooked": {
			"satiety": 480,
			"health": 0,
			"foodcategory": "Protein"
		},
		"*-catfish-fish-cooked": {
			"satiety": 480,
			"health": 0,
			"foodcategory": "Protein"
		},
		"*-mackerel-cooked": {
			"satiety": 240,
			"health": 0,
			"foodcategory": "Protein"
		}
	},
	"combustiblePropsByType": {
		"*-bullshark-fresh": {
			"meltingPoint": 150,
			"meltingDuration": 100,
			"smeltedRatio": 1,
			"smeltingType": "cook",
			"smeltedStack": {
				"type": "item",
				"code": "catch-bullshark-cooked"
			},
			"requiresContainer": false
		},
		"*-fresh": {
			"meltingPoint": 150,
			"meltingDuration": 20,
			"smeltedRatio": 1,
			"smeltingType": "cook",
			"smeltedStack": {
				"type": "item",
				"code": "catch-{type}-cooked"
			},
			"requiresContainer": false
		}
	},
	"materialDensity": 600
}